info face="Engravers MT" size=32 bold=0 italic=0 charset="" unicode=1 stretchH=100 smooth=1 aa=1 padding=0,0,0,0 spacing=1,1 outline=0
common lineHeight=32 base=26 scaleW=512 scaleH=512 pages=1 packed=0 alphaChnl=1 redChnl=0 greenChnl=0 blueChnl=0
page id=0 file="chips_med_0.png"
chars count=191
char id=32   x=508   y=26    width=3     height=1     xoffset=-1    yoffset=31    xadvance=9     page=0  chnl=15
char id=33   x=116   y=93    width=5     height=19    xoffset=3     yoffset=7     xadvance=11    page=0  chnl=15
char id=34   x=152   y=150   width=11    height=7     xoffset=2     yoffset=8     xadvance=16    page=0  chnl=15
char id=35   x=370   y=130   width=14    height=18    xoffset=0     yoffset=8     xadvance=14    page=0  chnl=15
char id=36   x=335   y=48    width=17    height=22    xoffset=0     yoffset=6     xadvance=18    page=0  chnl=15
char id=37   x=69    y=74    width=30    height=19    xoffset=1     yoffset=7     xadvance=32    page=0  chnl=15
char id=38   x=100   y=73    width=27    height=19    xoffset=0     yoffset=7     xadvance=27    page=0  chnl=15
char id=39   x=184   y=150   width=5     height=7     xoffset=3     yoffset=8     xadvance=11    page=0  chnl=15
char id=40   x=436   y=48    width=9     height=21    xoffset=1     yoffset=6     xadvance=10    page=0  chnl=15
char id=41   x=446   y=48    width=9     height=21    xoffset=0     yoffset=6     xadvance=10    page=0  chnl=15
char id=42   x=46    y=154   width=13    height=11    xoffset=2     yoffset=7     xadvance=18    page=0  chnl=15
char id=43   x=478   y=128   width=15    height=13    xoffset=0     yoffset=11    xadvance=15    page=0  chnl=15
char id=44   x=146   y=150   width=5     height=8     xoffset=3     yoffset=22    xadvance=11    page=0  chnl=15
char id=45   x=280   y=149   width=10    height=3     xoffset=2     yoffset=18    xadvance=15    page=0  chnl=15
char id=46   x=253   y=149   width=5     height=4     xoffset=3     yoffset=22    xadvance=11    page=0  chnl=15
char id=47   x=206   y=48    width=16    height=23    xoffset=0     yoffset=4     xadvance=16    page=0  chnl=15
char id=48   x=453   y=70    width=17    height=19    xoffset=0     yoffset=7     xadvance=18    page=0  chnl=15
char id=49   x=354   y=130   width=15    height=18    xoffset=1     yoffset=8     xadvance=18    page=0  chnl=15
char id=50   x=471   y=69    width=17    height=19    xoffset=0     yoffset=7     xadvance=18    page=0  chnl=15
char id=51   x=18    y=96    width=16    height=19    xoffset=1     yoffset=7     xadvance=18    page=0  chnl=15
char id=52   x=416   y=70    width=18    height=19    xoffset=0     yoffset=7     xadvance=18    page=0  chnl=15
char id=53   x=35    y=95    width=16    height=19    xoffset=1     yoffset=7     xadvance=18    page=0  chnl=15
char id=54   x=52    y=95    width=16    height=19    xoffset=1     yoffset=7     xadvance=18    page=0  chnl=15
char id=55   x=336   y=130   width=17    height=18    xoffset=1     yoffset=8     xadvance=18    page=0  chnl=15
char id=56   x=489   y=69    width=17    height=19    xoffset=0     yoffset=7     xadvance=18    page=0  chnl=15
char id=57   x=0     y=96    width=17    height=19    xoffset=0     yoffset=7     xadvance=18    page=0  chnl=15
char id=58   x=494   y=128   width=5     height=13    xoffset=3     yoffset=13    xadvance=11    page=0  chnl=15
char id=59   x=425   y=128   width=5     height=17    xoffset=3     yoffset=13    xadvance=11    page=0  chnl=15
char id=60   x=16    y=154   width=15    height=12    xoffset=0     yoffset=11    xadvance=15    page=0  chnl=15
char id=61   x=190   y=150   width=15    height=5     xoffset=0     yoffset=14    xadvance=15    page=0  chnl=15
char id=62   x=0     y=154   width=15    height=12    xoffset=0     yoffset=11    xadvance=15    page=0  chnl=15
char id=63   x=84    y=94    width=14    height=19    xoffset=2     yoffset=7     xadvance=18    page=0  chnl=15
char id=64   x=73    y=0     width=24    height=24    xoffset=-1    yoffset=8     xadvance=23    page=0  chnl=15
char id=65   x=206   y=72    width=25    height=19    xoffset=-1    yoffset=7     xadvance=24    page=0  chnl=15
char id=66   x=449   y=109   width=24    height=18    xoffset=0     yoffset=8     xadvance=24    page=0  chnl=15
char id=67   x=352   y=71    width=21    height=19    xoffset=1     yoffset=7     xadvance=23    page=0  chnl=15
char id=68   x=0     y=116   width=26    height=18    xoffset=0     yoffset=8     xadvance=27    page=0  chnl=15
char id=69   x=118   y=133   width=22    height=18    xoffset=0     yoffset=8     xadvance=23    page=0  chnl=15
char id=70   x=95    y=133   width=22    height=18    xoffset=0     yoffset=8     xadvance=23    page=0  chnl=15
char id=71   x=180   y=72    width=25    height=19    xoffset=2     yoffset=7     xadvance=27    page=0  chnl=15
char id=72   x=312   y=92    width=27    height=18    xoffset=0     yoffset=8     xadvance=27    page=0  chnl=15
char id=73   x=385   y=129   width=13    height=18    xoffset=1     yoffset=8     xadvance=15    page=0  chnl=15
char id=74   x=316   y=130   width=19    height=18    xoffset=0     yoffset=8     xadvance=19    page=0  chnl=15
char id=75   x=243   y=111   width=26    height=18    xoffset=1     yoffset=8     xadvance=27    page=0  chnl=15
char id=76   x=141   y=131   width=22    height=18    xoffset=0     yoffset=8     xadvance=23    page=0  chnl=15
char id=77   x=281   y=92    width=30    height=18    xoffset=0     yoffset=8     xadvance=31    page=0  chnl=15
char id=78   x=108   y=114   width=26    height=18    xoffset=0     yoffset=8     xadvance=27    page=0  chnl=15
char id=79   x=257   y=72    width=24    height=19    xoffset=1     yoffset=7     xadvance=26    page=0  chnl=15
char id=80   x=48    y=135   width=23    height=18    xoffset=0     yoffset=8     xadvance=23    page=0  chnl=15
char id=81   x=482   y=48    width=25    height=20    xoffset=1     yoffset=7     xadvance=26    page=0  chnl=15
char id=82   x=54    y=115   width=26    height=18    xoffset=1     yoffset=8     xadvance=27    page=0  chnl=15
char id=83   x=395   y=70    width=20    height=19    xoffset=1     yoffset=7     xadvance=21    page=0  chnl=15
char id=84   x=424   y=109   width=24    height=18    xoffset=0     yoffset=8     xadvance=24    page=0  chnl=15
char id=85   x=340   y=92    width=27    height=18    xoffset=0     yoffset=8     xadvance=27    page=0  chnl=15
char id=86   x=399   y=109   width=24    height=18    xoffset=0     yoffset=8     xadvance=24    page=0  chnl=15
char id=87   x=122   y=93    width=32    height=18    xoffset=0     yoffset=8     xadvance=32    page=0  chnl=15
char id=88   x=396   y=90    width=27    height=18    xoffset=0     yoffset=8     xadvance=27    page=0  chnl=15
char id=89   x=297   y=111   width=26    height=18    xoffset=1     yoffset=8     xadvance=27    page=0  chnl=15
char id=90   x=275   y=130   width=20    height=18    xoffset=1     yoffset=8     xadvance=23    page=0  chnl=15
char id=91   x=99    y=94    width=9     height=19    xoffset=1     yoffset=7     xadvance=10    page=0  chnl=15
char id=92   x=399   y=128   width=9     height=18    xoffset=-1    yoffset=8     xadvance=8     page=0  chnl=15
char id=93   x=17    y=75    width=9     height=20    xoffset=0     yoffset=6     xadvance=10    page=0  chnl=15
char id=94   x=76    y=153   width=14    height=9     xoffset=1     yoffset=8     xadvance=16    page=0  chnl=15
char id=95   x=318   y=149   width=15    height=1     xoffset=-1    yoffset=28    xadvance=14    page=0  chnl=15
char id=96   x=243   y=149   width=9     height=4     xoffset=-1    yoffset=3     xadvance=9     page=0  chnl=15
char id=97   x=128   y=73    width=25    height=19    xoffset=-1    yoffset=7     xadvance=24    page=0  chnl=15
char id=98   x=324   y=111   width=24    height=18    xoffset=0     yoffset=8     xadvance=24    page=0  chnl=15
char id=99   x=330   y=72    width=21    height=19    xoffset=1     yoffset=7     xadvance=23    page=0  chnl=15
char id=100  x=162   y=112   width=26    height=18    xoffset=0     yoffset=8     xadvance=27    page=0  chnl=15
char id=101  x=187   y=131   width=22    height=18    xoffset=0     yoffset=8     xadvance=23    page=0  chnl=15
char id=102  x=164   y=131   width=22    height=18    xoffset=0     yoffset=8     xadvance=23    page=0  chnl=15
char id=103  x=154   y=73    width=25    height=19    xoffset=2     yoffset=7     xadvance=27    page=0  chnl=15
char id=104  x=368   y=91    width=27    height=18    xoffset=0     yoffset=8     xadvance=27    page=0  chnl=15
char id=105  x=498   y=108   width=13    height=18    xoffset=1     yoffset=8     xadvance=15    page=0  chnl=15
char id=106  x=296   y=130   width=19    height=18    xoffset=0     yoffset=8     xadvance=19    page=0  chnl=15
char id=107  x=81    y=114   width=26    height=18    xoffset=1     yoffset=8     xadvance=27    page=0  chnl=15
char id=108  x=72    y=134   width=22    height=18    xoffset=0     yoffset=8     xadvance=23    page=0  chnl=15
char id=109  x=188   y=92    width=30    height=18    xoffset=0     yoffset=8     xadvance=31    page=0  chnl=15
char id=110  x=27    y=116   width=26    height=18    xoffset=0     yoffset=8     xadvance=27    page=0  chnl=15
char id=111  x=232   y=72    width=24    height=19    xoffset=1     yoffset=7     xadvance=26    page=0  chnl=15
char id=112  x=0     y=135   width=23    height=18    xoffset=0     yoffset=8     xadvance=23    page=0  chnl=15
char id=113  x=456   y=48    width=25    height=20    xoffset=1     yoffset=7     xadvance=26    page=0  chnl=15
char id=114  x=480   y=89    width=26    height=18    xoffset=1     yoffset=8     xadvance=27    page=0  chnl=15
char id=115  x=374   y=70    width=20    height=19    xoffset=1     yoffset=7     xadvance=21    page=0  chnl=15
char id=116  x=349   y=111   width=24    height=18    xoffset=0     yoffset=8     xadvance=24    page=0  chnl=15
char id=117  x=424   y=90    width=27    height=18    xoffset=0     yoffset=8     xadvance=27    page=0  chnl=15
char id=118  x=374   y=110   width=24    height=18    xoffset=0     yoffset=8     xadvance=24    page=0  chnl=15
char id=119  x=155   y=93    width=32    height=18    xoffset=0     yoffset=8     xadvance=32    page=0  chnl=15
char id=120  x=452   y=90    width=27    height=18    xoffset=0     yoffset=8     xadvance=27    page=0  chnl=15
char id=121  x=189   y=111   width=26    height=18    xoffset=1     yoffset=8     xadvance=27    page=0  chnl=15
char id=122  x=254   y=130   width=20    height=18    xoffset=1     yoffset=8     xadvance=23    page=0  chnl=15
char id=123  x=122   y=0     width=8     height=24    xoffset=2     yoffset=5     xadvance=11    page=0  chnl=15
char id=124  x=65    y=0     width=3     height=25    xoffset=1     yoffset=7     xadvance=5     page=0  chnl=15
char id=125  x=113   y=0     width=8     height=24    xoffset=1     yoffset=5     xadvance=11    page=0  chnl=15
char id=126  x=216   y=149   width=16    height=4     xoffset=-1    yoffset=17    xadvance=14    page=0  chnl=15
char id=160  x=508   y=24    width=3     height=1     xoffset=-1    yoffset=31    xadvance=9     page=0  chnl=15
char id=161  x=109   y=93    width=6     height=19    xoffset=2     yoffset=7     xadvance=11    page=0  chnl=15
char id=162  x=423   y=48    width=12    height=21    xoffset=0     yoffset=11    xadvance=12    page=0  chnl=15
char id=163  x=435   y=70    width=17    height=19    xoffset=0     yoffset=7     xadvance=18    page=0  chnl=15
char id=164  x=463   y=128   width=14    height=14    xoffset=0     yoffset=10    xadvance=14    page=0  chnl=15
char id=165  x=135   y=112   width=26    height=18    xoffset=1     yoffset=8     xadvance=27    page=0  chnl=15
char id=166  x=69    y=0     width=3     height=25    xoffset=1     yoffset=7     xadvance=5     page=0  chnl=15
char id=167  x=0     y=0     width=12    height=26    xoffset=0     yoffset=6     xadvance=13    page=0  chnl=15
char id=168  x=265   y=149   width=14    height=3     xoffset=-2    yoffset=3     xadvance=9     page=0  chnl=15
char id=169  x=232   y=130   width=21    height=18    xoffset=0     yoffset=8     xadvance=21    page=0  chnl=15
char id=170  x=174   y=150   width=9     height=7     xoffset=0     yoffset=7     xadvance=9     page=0  chnl=15
char id=171  x=447   y=128   width=15    height=14    xoffset=0     yoffset=10    xadvance=15    page=0  chnl=15
char id=172  x=115   y=152   width=20    height=8     xoffset=-1    yoffset=18    xadvance=20    page=0  chnl=15
char id=173  x=291   y=149   width=10    height=3     xoffset=2     yoffset=18    xadvance=15    page=0  chnl=15
char id=174  x=210   y=130   width=21    height=18    xoffset=0     yoffset=8     xadvance=21    page=0  chnl=15
char id=175  x=302   y=149   width=15    height=1     xoffset=-1    yoffset=6     xadvance=14    page=0  chnl=15
char id=176  x=136   y=152   width=9     height=8     xoffset=1     yoffset=8     xadvance=11    page=0  chnl=15
char id=177  x=409   y=128   width=15    height=17    xoffset=0     yoffset=9     xadvance=15    page=0  chnl=15
char id=178  x=91    y=153   width=11    height=9     xoffset=0     yoffset=7     xadvance=12    page=0  chnl=15
char id=179  x=500   y=127   width=11    height=10    xoffset=1     yoffset=7     xadvance=12    page=0  chnl=15
char id=180  x=233   y=149   width=9     height=4     xoffset=2     yoffset=3     xadvance=9     page=0  chnl=15
char id=181  x=0     y=75    width=16    height=20    xoffset=0     yoffset=12    xadvance=16    page=0  chnl=15
char id=182  x=98    y=0     width=14    height=24    xoffset=-1    yoffset=7     xadvance=12    page=0  chnl=15
char id=183  x=259   y=149   width=5     height=4     xoffset=3     yoffset=15    xadvance=11    page=0  chnl=15
char id=184  x=206   y=150   width=9     height=5     xoffset=0     yoffset=25    xadvance=9     page=0  chnl=15
char id=185  x=103   y=152   width=11    height=9     xoffset=1     yoffset=8     xadvance=12    page=0  chnl=15
char id=186  x=164   y=150   width=9     height=7     xoffset=0     yoffset=7     xadvance=10    page=0  chnl=15
char id=187  x=431   y=128   width=15    height=14    xoffset=0     yoffset=10    xadvance=15    page=0  chnl=15
char id=188  x=377   y=48    width=22    height=21    xoffset=1     yoffset=6     xadvance=23    page=0  chnl=15
char id=189  x=400   y=48    width=22    height=21    xoffset=1     yoffset=6     xadvance=23    page=0  chnl=15
char id=190  x=353   y=48    width=23    height=21    xoffset=0     yoffset=6     xadvance=23    page=0  chnl=15
char id=191  x=69    y=94    width=14    height=19    xoffset=2     yoffset=7     xadvance=18    page=0  chnl=15
char id=192  x=408   y=24    width=24    height=23    xoffset=0     yoffset=3     xadvance=24    page=0  chnl=15
char id=193  x=26    y=26    width=25    height=23    xoffset=-1    yoffset=3     xadvance=24    page=0  chnl=15
char id=194  x=130   y=25    width=25    height=23    xoffset=-1    yoffset=3     xadvance=24    page=0  chnl=15
char id=195  x=104   y=25    width=25    height=23    xoffset=-1    yoffset=3     xadvance=24    page=0  chnl=15
char id=196  x=78    y=25    width=25    height=23    xoffset=-1    yoffset=3     xadvance=24    page=0  chnl=15
char id=197  x=13    y=0     width=25    height=25    xoffset=-1    yoffset=1     xadvance=24    page=0  chnl=15
char id=198  x=219   y=92    width=30    height=18    xoffset=0     yoffset=8     xadvance=31    page=0  chnl=15
char id=199  x=490   y=0     width=21    height=23    xoffset=1     yoffset=7     xadvance=23    page=0  chnl=15
char id=200  x=138   y=49    width=22    height=23    xoffset=0     yoffset=3     xadvance=23    page=0  chnl=15
char id=201  x=115   y=49    width=22    height=23    xoffset=0     yoffset=3     xadvance=23    page=0  chnl=15
char id=202  x=92    y=49    width=22    height=23    xoffset=0     yoffset=3     xadvance=23    page=0  chnl=15
char id=203  x=46    y=50    width=22    height=23    xoffset=0     yoffset=3     xadvance=23    page=0  chnl=15
char id=204  x=265   y=48    width=13    height=23    xoffset=1     yoffset=3     xadvance=15    page=0  chnl=15
char id=205  x=251   y=48    width=13    height=23    xoffset=1     yoffset=3     xadvance=15    page=0  chnl=15
char id=206  x=237   y=48    width=13    height=23    xoffset=1     yoffset=3     xadvance=15    page=0  chnl=15
char id=207  x=223   y=48    width=13    height=23    xoffset=1     yoffset=3     xadvance=15    page=0  chnl=15
char id=208  x=270   y=111   width=26    height=18    xoffset=0     yoffset=8     xadvance=27    page=0  chnl=15
char id=209  x=436   y=0     width=26    height=23    xoffset=0     yoffset=3     xadvance=27    page=0  chnl=15
char id=210  x=333   y=24    width=24    height=23    xoffset=1     yoffset=3     xadvance=26    page=0  chnl=15
char id=211  x=308   y=24    width=24    height=23    xoffset=1     yoffset=3     xadvance=26    page=0  chnl=15
char id=212  x=258   y=24    width=24    height=23    xoffset=1     yoffset=3     xadvance=26    page=0  chnl=15
char id=213  x=383   y=24    width=24    height=23    xoffset=1     yoffset=3     xadvance=26    page=0  chnl=15
char id=214  x=283   y=24    width=24    height=23    xoffset=1     yoffset=3     xadvance=26    page=0  chnl=15
char id=215  x=32    y=154   width=13    height=11    xoffset=1     yoffset=11    xadvance=15    page=0  chnl=15
char id=216  x=282   y=72    width=23    height=19    xoffset=2     yoffset=7     xadvance=27    page=0  chnl=15
char id=217  x=299   y=0     width=27    height=23    xoffset=0     yoffset=3     xadvance=27    page=0  chnl=15
char id=218  x=131   y=0     width=27    height=23    xoffset=0     yoffset=3     xadvance=27    page=0  chnl=15
char id=219  x=243   y=0     width=27    height=23    xoffset=0     yoffset=3     xadvance=27    page=0  chnl=15
char id=220  x=327   y=0     width=27    height=23    xoffset=0     yoffset=3     xadvance=27    page=0  chnl=15
char id=221  x=463   y=0     width=26    height=23    xoffset=1     yoffset=3     xadvance=27    page=0  chnl=15
char id=222  x=474   y=109   width=23    height=18    xoffset=0     yoffset=8     xadvance=23    page=0  chnl=15
char id=223  x=27    y=75    width=41    height=19    xoffset=1     yoffset=7     xadvance=43    page=0  chnl=15
char id=224  x=358   y=24    width=24    height=23    xoffset=0     yoffset=3     xadvance=24    page=0  chnl=15
char id=225  x=0     y=27    width=25    height=23    xoffset=-1    yoffset=3     xadvance=24    page=0  chnl=15
char id=226  x=52    y=26    width=25    height=23    xoffset=-1    yoffset=3     xadvance=24    page=0  chnl=15
char id=227  x=182   y=24    width=25    height=23    xoffset=-1    yoffset=3     xadvance=24    page=0  chnl=15
char id=228  x=156   y=24    width=25    height=23    xoffset=-1    yoffset=3     xadvance=24    page=0  chnl=15
char id=229  x=39    y=0     width=25    height=25    xoffset=-1    yoffset=1     xadvance=24    page=0  chnl=15
char id=230  x=250   y=92    width=30    height=18    xoffset=0     yoffset=8     xadvance=31    page=0  chnl=15
char id=231  x=184   y=48    width=21    height=23    xoffset=1     yoffset=7     xadvance=23    page=0  chnl=15
char id=232  x=0     y=51    width=22    height=23    xoffset=0     yoffset=3     xadvance=23    page=0  chnl=15
char id=233  x=23    y=51    width=22    height=23    xoffset=0     yoffset=3     xadvance=23    page=0  chnl=15
char id=234  x=69    y=50    width=22    height=23    xoffset=0     yoffset=3     xadvance=23    page=0  chnl=15
char id=235  x=161   y=48    width=22    height=23    xoffset=0     yoffset=3     xadvance=23    page=0  chnl=15
char id=236  x=321   y=48    width=13    height=23    xoffset=1     yoffset=3     xadvance=15    page=0  chnl=15
char id=237  x=293   y=48    width=13    height=23    xoffset=1     yoffset=3     xadvance=15    page=0  chnl=15
char id=238  x=307   y=48    width=13    height=23    xoffset=1     yoffset=3     xadvance=15    page=0  chnl=15
char id=239  x=279   y=48    width=13    height=23    xoffset=1     yoffset=3     xadvance=15    page=0  chnl=15
char id=240  x=216   y=111   width=26    height=18    xoffset=0     yoffset=8     xadvance=27    page=0  chnl=15
char id=241  x=409   y=0     width=26    height=23    xoffset=0     yoffset=3     xadvance=27    page=0  chnl=15
char id=242  x=233   y=24    width=24    height=23    xoffset=1     yoffset=3     xadvance=26    page=0  chnl=15
char id=243  x=208   y=24    width=24    height=23    xoffset=1     yoffset=3     xadvance=26    page=0  chnl=15
char id=244  x=433   y=24    width=24    height=23    xoffset=1     yoffset=3     xadvance=26    page=0  chnl=15
char id=245  x=458   y=24    width=24    height=23    xoffset=1     yoffset=3     xadvance=26    page=0  chnl=15
char id=246  x=483   y=24    width=24    height=23    xoffset=1     yoffset=3     xadvance=26    page=0  chnl=15
char id=247  x=60    y=154   width=15    height=10    xoffset=0     yoffset=14    xadvance=15    page=0  chnl=15
char id=248  x=306   y=72    width=23    height=19    xoffset=2     yoffset=7     xadvance=27    page=0  chnl=15
char id=249  x=271   y=0     width=27    height=23    xoffset=0     yoffset=3     xadvance=27    page=0  chnl=15
char id=250  x=215   y=0     width=27    height=23    xoffset=0     yoffset=3     xadvance=27    page=0  chnl=15
char id=251  x=187   y=0     width=27    height=23    xoffset=0     yoffset=3     xadvance=27    page=0  chnl=15
char id=252  x=159   y=0     width=27    height=23    xoffset=0     yoffset=3     xadvance=27    page=0  chnl=15
char id=253  x=382   y=0     width=26    height=23    xoffset=1     yoffset=3     xadvance=27    page=0  chnl=15
char id=254  x=24    y=135   width=23    height=18    xoffset=0     yoffset=8     xadvance=23    page=0  chnl=15
char id=255  x=355   y=0     width=26    height=23    xoffset=1     yoffset=3     xadvance=27    page=0  chnl=15
kernings count=108
kerning first=65  second=84  amount=-1  
kerning first=65  second=86  amount=-5  
kerning first=65  second=87  amount=-5  
kerning first=65  second=89  amount=-5  
kerning first=65  second=116 amount=-1  
kerning first=65  second=118 amount=-5  
kerning first=65  second=119 amount=-5  
kerning first=65  second=121 amount=-5  
kerning first=121 second=97  amount=-4  
kerning first=70  second=44  amount=-4  
kerning first=70  second=46  amount=-4  
kerning first=70  second=65  amount=-3  
kerning first=70  second=97  amount=-3  
kerning first=76  second=86  amount=-2  
kerning first=76  second=87  amount=-3  
kerning first=76  second=89  amount=-3  
kerning first=76  second=118 amount=-2  
kerning first=76  second=119 amount=-3  
kerning first=76  second=121 amount=-3  
kerning first=121 second=65  amount=-4  
kerning first=80  second=44  amount=-6  
kerning first=80  second=46  amount=-6  
kerning first=80  second=65  amount=-4  
kerning first=80  second=97  amount=-4  
kerning first=82  second=86  amount=-2  
kerning first=82  second=87  amount=-2  
kerning first=82  second=89  amount=-3  
kerning first=82  second=118 amount=-2  
kerning first=82  second=119 amount=-2  
kerning first=82  second=121 amount=-3  
kerning first=84  second=44  amount=-3  
kerning first=121 second=59  amount=-4  
kerning first=84  second=46  amount=-3  
kerning first=121 second=58  amount=-3  
kerning first=84  second=59  amount=-1  
kerning first=84  second=65  amount=-1  
kerning first=84  second=97  amount=-1  
kerning first=86  second=44  amount=-7  
kerning first=86  second=45  amount=-4  
kerning first=86  second=46  amount=-6  
kerning first=86  second=58  amount=-4  
kerning first=86  second=59  amount=-4  
kerning first=86  second=65  amount=-5  
kerning first=86  second=97  amount=-5  
kerning first=87  second=44  amount=-6  
kerning first=87  second=45  amount=-3  
kerning first=87  second=46  amount=-5  
kerning first=87  second=58  amount=-3  
kerning first=87  second=59  amount=-3  
kerning first=87  second=65  amount=-4  
kerning first=87  second=97  amount=-4  
kerning first=89  second=44  amount=-5  
kerning first=89  second=45  amount=-4  
kerning first=89  second=46  amount=-6  
kerning first=89  second=58  amount=-3  
kerning first=89  second=59  amount=-4  
kerning first=89  second=65  amount=-4  
kerning first=89  second=97  amount=-4  
kerning first=97  second=84  amount=-1  
kerning first=97  second=86  amount=-5  
kerning first=97  second=87  amount=-5  
kerning first=97  second=89  amount=-5  
kerning first=97  second=116 amount=-1  
kerning first=97  second=118 amount=-5  
kerning first=97  second=119 amount=-5  
kerning first=97  second=121 amount=-5  
kerning first=121 second=46  amount=-6  
kerning first=102 second=44  amount=-4  
kerning first=102 second=46  amount=-4  
kerning first=102 second=65  amount=-3  
kerning first=102 second=97  amount=-3  
kerning first=108 second=86  amount=-2  
kerning first=108 second=87  amount=-3  
kerning first=108 second=89  amount=-3  
kerning first=108 second=118 amount=-2  
kerning first=108 second=119 amount=-3  
kerning first=108 second=121 amount=-3  
kerning first=121 second=45  amount=-4  
kerning first=112 second=44  amount=-6  
kerning first=112 second=46  amount=-6  
kerning first=112 second=65  amount=-4  
kerning first=112 second=97  amount=-4  
kerning first=114 second=86  amount=-2  
kerning first=114 second=87  amount=-2  
kerning first=114 second=89  amount=-3  
kerning first=114 second=118 amount=-2  
kerning first=114 second=119 amount=-2  
kerning first=114 second=121 amount=-3  
kerning first=116 second=44  amount=-3  
kerning first=121 second=44  amount=-5  
kerning first=116 second=46  amount=-3  
kerning first=119 second=97  amount=-4  
kerning first=116 second=59  amount=-1  
kerning first=116 second=65  amount=-1  
kerning first=116 second=97  amount=-1  
kerning first=118 second=44  amount=-7  
kerning first=118 second=45  amount=-4  
kerning first=118 second=46  amount=-6  
kerning first=118 second=58  amount=-4  
kerning first=118 second=59  amount=-4  
kerning first=118 second=65  amount=-5  
kerning first=118 second=97  amount=-5  
kerning first=119 second=44  amount=-6  
kerning first=119 second=45  amount=-3  
kerning first=119 second=46  amount=-5  
kerning first=119 second=58  amount=-3  
kerning first=119 second=59  amount=-3  
kerning first=119 second=65  amount=-4  
